<svg xmlns="http://www.w3.org/2000/svg" xmlns:xlink="http://www.w3.org/1999/xlink" width="542.12" height="477.182" viewBox="0 0 542.12 477.182">
  <defs>
    <linearGradient id="linear-gradient" x1="0.5" y1="1" x2="0.5" gradientUnits="objectBoundingBox">
      <stop offset="0.01" stop-color="gray" stop-opacity="0.251"/>
      <stop offset="0.54" stop-color="gray" stop-opacity="0.122"/>
      <stop offset="1" stop-color="gray" stop-opacity="0.102"/>
    </linearGradient>
  </defs>
  <g id="request" transform="translate(331.45 351.5)">
    <path id="Path_3" data-name="Path 3" d="M201.38,132.63H670.79c19.82,0,35.88,16.29,35.88,36.39V477.85c0,20.1-16.06,36.39-35.88,36.39H398.38c-9.07,31.52-31.85,75-89.13,94.33l16.18-94.33h-124c-19.82,0-35.88-16.29-35.88-36.39V169A36.055,36.055,0,0,1,201.38,132.63Z" transform="translate(-496.5 -483.63)" stroke="#bebebe" stroke-width="1" fill="url(#linear-gradient)"/>
    <g id="Group_1" data-name="Group 1" transform="translate(-331 -351)">
      <path id="Path_4" data-name="Path 4" d="M206.77,142.1H665a35,35,0,0,1,35,35V474.41a35,35,0,0,1-35,35H399.09c-8.85,30.34-31.09,72.16-87,90.8l15.79-90.8H206.77a35,35,0,0,1-35-35V177.13a35,35,0,0,1,35-35.03Z" transform="translate(-165.5 -132.63)" fill="#fff" stroke="#bebebe" stroke-width="1"/>
      <rect id="Rectangle_6" data-name="Rectangle 6" width="332.305" height="27.06" transform="translate(46.325 66.61)" fill="#14488b" stroke="#bebebe" stroke-width="1"/>
      <rect id="Rectangle_7" data-name="Rectangle 7" width="81.18" height="27.06" transform="translate(47.555 116.56)" fill="#14488b" stroke="#bebebe" stroke-width="1"/>
      <rect id="Rectangle_8" data-name="Rectangle 8" width="160.08" height="27.06" transform="translate(48.785 166.51)" fill="#14488b" stroke="#bebebe" stroke-width="1"/>
      <rect id="Rectangle_9" data-name="Rectangle 9" width="312.155" height="27.06" transform="translate(50.015 216.47)" fill="#14488b" stroke="#bebebe" stroke-width="1"/>
      <rect id="Rectangle_10" data-name="Rectangle 10" width="103.51" height="27.06" transform="translate(51.245 266.42)" fill="#14488b" stroke="#bebebe" stroke-width="1"/>
    </g>
  </g>
</svg>
